Message no.,Message 
1,"Good morning... we hope today brings light into your life, have a super day from knoxxi. "
2,"Good morning... jump out with excitement, the clock is ticking, greatness awaits. Enjoy the day ahead, from knoxxi. "
3,Good morning... remember your dreams? Well it's time to start making them a reality. Be brave. Knoxxi is here to support.
4,"Good morning... don't wait for a perfect time, get those goals done today! Rise and stride. From knoxxi. "
5,"Good morning... today is another opportunity to be a better you for you, don't miss out. Have an excellent day. Love knoxxi. "
6,Good morning... you are exceptional in a million ways. Let today establish that. Get those steps going. Have a splendid day ahead. From knoxxi. 
7,"Good morning... what happens when you sleep too much? Your dreams become nightmares and we don't want that do we? Time to build the best reality ever, you can be great. From knoxxi. "
8,"Good morning... the sun is up and so are you, another day to live, another success awaits. Grab it with joy! knoxxi is rooting for you."
9,"Good morning... a warm cup of coffee will keep you going but a solid mindset will get the job done, be intentional today with smiles. From the team at knoxxi. "
10,Good morning... when you breathe remember to keep living while you can. Another day with another chance at life. Enjoy it. From knoxxi with love.
11,"Good morning... don't just dream of success like everyone else, get up and make it happen. Be exceptionally you. With love from Knoxxi. "
12,"Good morning... when life gives a new day you have the power to create new art. Take control of those contours, todays canvas is right ahead, have a great day. From knoxxi with love."
13,"Good morning... you are never too late, never too early but let today feel right on time. Beat the time and tick off a goal! Cheers to a bright day. From the team at knoxxi. "
14,Good morning...
15,Good morning... let this morning be a glittering invitation into cheerfulness and hope. Have a splendid day ahead. With love from Knoxxi
16,"Good morning... tell yourself all great things, because your mind believes what you make it believe. Don't settle, have a spontaneous day. Love from Knoxxi. "
17,"Good morning... start the day with laughter, be hysterical and allow smiles find their way to you through the day. Be happy and have a brilliant day. From knoxxi with love. "
18,"Good morning... may this new day brew new thoughts and chase out the crippling blues. Life is worth everything new. Have a spectacular day, from knoxxi with love.  "
19,"Good morning... say to yourself ' i am in control, i am me and i believe' that should get your confidence engine on full boost. Zoom into a great day, with love from Knoxxi. "
20,"Good morning... yesterday was good but today will be better, each day comes with opportunities.  Recognize them and take charge today. From knoxxi with love. "
21,Good morning... what is your vision? Let's enlarge it and bless the world with it. Make that difference today. From knoxxi with love.
22,Good morning... certain days are gloomy and cold but remember times and seasons come and go. Be your best today and it shall be your very own perfect. From knoxxi with love. 
23,"Good morning... nature awakens with you, help others with what lies on your heart. There is nothing too small for greatness. From  knoxxi with love, enjoy the day ahead."
24,Good morning... find the reason for your burning passion but don't sleep on it.  Today is the beginning of that big change. Smile through the day. From knoxxi with love. 
25,"Good morning... you don't need a green light from the entire population to make things move, you have the power within you. Tap into it and use it. From knoxxi with love.  "
26,"Good morning... don't forget to water your little shooting dreams and hopes. Little drops daily will strengthen those roots, time to grow positively. Have a fruitful day, from knoxxi with love. "
27,"Good morning... write it on your heart that each day will be great. Full of strength, wisdom and can do power. Have a spectacular day. From knoxxi with love. "
28,Good morning... serve kindness to all you mert today because what goes around comes around. It's only beautiful to be beautiful first. Smile wide and have a brilliant day. From knoxxi with lots of love. 
29,"Good morning...  guess what? Your name wasn't in the obituary this morning? Be thankful, grateful and enjoy another blessing of life. Make it count with joy. Have a blessed day. From knoxxi with love. "
30,"Good morning... you have 24 reasons to be happy in 24 hours. Keep it simple and lighten your heart, your dreams matter just as today so smile 24 times wider. From knoxxi with love. "
31,Good morning... we smile with you as you unleash positive energy for an extraordinarily exclusive day. Be happy. From knoxxi with love. 
32,"Good morning... let the fire in your spirit grow bigger by day, a great day is moments away, stay safe. From knoxxi with love. "
33,Good morning... your purpose is exquisitely placed in your heart. Don't let life's rocking boat sink it. Sail into success from the shores of today. With love from Knoxxi. 
34,"Good morning... you are beautiful, strong, full of life and an absolute joy! Don't believe otherwise, you are and will always be a winner. With love from Knoxxi. "
35,Good morning... why don't you be your own sunshine when the day goes dim? You just might brighten someone else's world too. Have a lovely sunshine day. From knoxxi with love. 
36,"Good morning... life can be like a cup of tea or coffee. Super hot! But when you wait it out abit, the warmth tastes perfect. Be patient with today's hot moments, they become warm soon after! Cheers to a great morning. From knoxxi with love."
37,"Good morning...be cheerful, nothing is perfect but the perfect you comes together in the imperfections. Enjoy the wobbly-bobbly day. From knoxxi with love. "
38,"Good morning... we hope you jumped out of bed ready to conquer the world, you are the hero others need. From knoxxi with love, enjoy the day."
39,"Good morning... just as morning dew settles silently on the petals, making them glow, so does favour settle on your heart. "
40,"Good morning... ever thought of giving up? But wait and think about this, what if it turns out better than expected? Sounds great right? Trying on it's own is an act of progress. Try again today and it shall be great. Have a splendid day, from Knoxxi with love."
41,"Good morning... catch the breeze, spread your wings and fly. It's a new day! From knoxxi with love. "
42,"Good morning... we hope you watched the golden sunrise, a million new moments to absorb! From knoxxi with love.  "
43,Good morning... morning starts from dawn because great things start in the dark. Get ready for an outburst. From knoxxi with love. 
44,Good morning... look into the mirror and dress yourself with positivity. There is nothing more beautiful than self image with a vibrant glow. From knoxxi with love. 
45,"Good morning... great people don't wait for the sun to rise, they rise with it. Have a glorious morning. From knoxxi with love. "
46,Good morning... having a good day is by choice. We hope you choose the best for today. With love from Knoxxi. 
47,"Good morning... while the birds chirp in gratitude humans rise with worry. Have a heart of content, at least you didn't wake in a nest. Sing louder. From knoxxi with love. "
48,"Good morning... sift out life's best memories and keep them on repeat. They will fuel the days to come, be happy, and always look for greater achievement. From knoxxi with love. "
49,"Good morning... smile with your eyes, dance with your heart and leap with your mind. The day is what you make it. From knoxxi with love. "
50,"Good morning...winners build an empire of positive thoughts. Be an emperor of greatness in the kingdom of big dreams. The day unfolds right before you. Have a spectacular one. With love from Knoxxi, cheers to a great morning. "
51,"Good morning... a blessing it is, another chance to have. Make this trial everything you imagined. From us at knoxxi tomorrow is here!"
52,Good morning... if today were your last would you live your dreams or increase your worries? Smile and live. With love from Knoxxi. 
53,"Good morning... flowers don't just bloom, they understand timing and purpose. Find your bloom as a beautiful day unfolds. With love from us at knoxxi. "
54,Good morning... let today be a message to the future you.  Let them know you aren't giving up. Get up and keep striving. YOU will be proud. Have an ambitious day. With love from Knoxxi.  
55,"Good morning... be the rainbow after the storm, brighten the world with goodness. That is the best form of living. Enjoy the day! From knoxxi with love. "
56,"Good morning... grab your coffee or tea, count to three and step into a vibrant new day. With love from us at knoxxi. "
57,Good morning... golden moments start in the morning. Don't miss a touch of those rays! Have fun and enjoy the blessing of today.  From knoxxi with love. 
58,"Good morning... have a jumbo breakfast, whisk those eggs and don't forget to add the beautiful moments the day sprinkles through. Enjoy the special ingredient. Live, laugh and love. From knoxxi. "
59,"Good morning... flip the page, rewrite the story. Yesterday doesn't matter anymore. Grab today as if falls like petals. Have a super new day. From knoxxi with love. "
60,"Good morning... why worry about what lies beyond control? Let it be and enjoy your heartbeat. From knoxxi with love, keep moving forward. "
61,"Good morning... don't let fears hold you back, no one made it without being afraid first. Be brave and own the day! From knoxxi with love. "
62,Good morning... once your heart beats it means something great. Embrace it daily. Stay living. From knoxxi with love.  
63,"Good morning... don't let the simple things steal your joy, laugh about them because they only last moments at a time. From knoxxi with love, have a joy filled day. "
64,"Good morning... get out of bed even when you don't want to. Your future is a need , don't be robbed by a want. Go get it! From knoxxi with love. "
65,Good morning... each day you smile you brighten someone else's world. Don't be late today! From the knoxxi team with love. 
66,Good morning... had any positive thoughts set out for today? Stay in the positivity zone and let all negatives zoom by. With love from Knoxxi. 
67,"Good morning... kiss the bad days goodbye, wave hi to new opportunities as they come your way. Cheers to a great day. With love from Knoxxi. "
68,Good morning... having a fabulous day begins with embracing the fabulous you. Sending you the warmest encouragement. From knoxxi with love. 
69,"Good morning... things fall, things break, into a million pieces we cannot always fix. Sweep yesterday's bits under the rug. Today is here and it is crystal clear! See through it. With love from Knoxxi.  "
70,"Good morning... if yesterday was the end you wouldn't have been awake this morning, there are second chances with every risen sun. Live your purpose till the very end, start today. With love from Knoxxi. "
71,"Good morning... we hope last night's rest was enough to fuel this day. Be energized, be you, be greater, not the same. Have an explosive day. From knoxxi with love. "
72,"Good morning... tomorrow is always scary, but it is here today. Live it so it becomes a walk through memory lane of beautiful  yesterdays. Enjoy each moment. With love from Knoxxi. "
73,"Good morning... being kind is the best gift to human, one which is appreciated all round, given and received. Step out into today with kindness, lift another spirit, soon your joy will float above the days difficulties.  Have a kindness filled day. Be intentional. From knoxxi with love. "
74,"Good morning... if nature could talk it will tell us the secret of its beauty. Pay attention to the world around you, let peace into your heart as many times as you can. Nature will be proud. From knoxxi with love. "
75,"Good morning... life is like a boat on the ocean, no matter how calm the waters are, it still rocks. Lift your spirit as your boat sails another day. It is all you need, smile endlessly. From knoxxi with love. "
76,"Good morning... life is short, go for the golden moments, relax those shoulders, your pulse doesn't need to race all the time. Relax and admire the simplicity through the day. From knoxxi with love. "
77,"Good morning... before you step out look into the mirror, see the sparkle in your eyes and be reminded of the greatness deep within. From knoxxi with love. "
78,"Good morning... races aren't run backwards, the finish line is up ahead. Keep your zeal to seal the deal. Have a productive day! From knoxxi with love. "
79,"Good morning... have a day to remember when night falls. Memories are true but how they are depends on you. Make the day fantastically memorable. With love from Knoxxi, enjoy the day."
80,"Good morning... time will pass just as easily as the wind. Enjoy it while it does, with a good morning and a wonderful day. From knoxxi with love. "
81,Good morning... when last did you take ten minutes to exhale your worries and inhale the peace of the morning. Do that today to set the right pace. With love from us all at knoxxi.
82,"Good morning... it's a brand new day, step in style. Love yourself, be yourself, own the morning with no regrets. From knoxxi with love, keep it fabulous!"
83,"Good morning... we hope a smile is drawn on your face as you read this. You are special, capable and able, to make your dreams come true. Do what you need to do for YOU. With love and support from knoxxi. "
84,"Good morning... be a beacon of hope to those nearest to you. Share in the little experiences and discover through that, you matter. Have a brilliant morning. With love from Knoxxi. "
85,"Good morning... when your brain is up and ready to get going your body needs to oblige. Jump out of bed , be up and ready for the ride. From knoxxi with love, don't be late."
86,Good morning... a new is served nice and cool because life has to be nice and easy not a pot of boiling soup. 
87,"Good morning... be a little bird, take the risk to jump out of the nest. That is the only way you will learn how to fly. From knoxxi with love, spread your wings."
88,Good morning... what are your most beautiful memories? Replay them each morning so they inspire you to create more. From knoxxi with all the love.
89,"Good morning... ever felt like giving up? You aren't alone but don't make it known. Fight to make the difference. It all starts with a bold morning and a golden day. From knoxxi with love, be a catalyst of change. "
90,"Good morning... nothing changes until you do, dust of the creative you. It's time to design your dreams once again! Go get it. From knoxxi with love. "
91,"Good morning... take time for a morning exercise, get your blood flowing right, your thoughts will soon pop into sight while your day shines bright, everything will be alright.  With all the love, knoxxi. "
92,"Good morning... what time is it? Oh yes, time to put greatest to the test. Brace up the morning, a magnificent day awaits."
93,"Good morning... great people don't just say what they want to do, they do what they want to say because actions indeed speak louder than words. Let your success do the talking, start with this morning.  From knoxxi with love. "
94,Good morning... silver and gold you may not have but a ready mind dazzling with ambition and positivity will fetch you everything beautiful and valuable. Don't underestimate the power of great thought. From knoxxi with love. 
95,"Good morning... the night might have been shallow, but the day is here to deepen ideas and widen your horizon. See far and wide. Life gives chances,it is called morning. From knoxxi with love. "
96,Good morning... grab your things and head out with joy. Today will soon be yesterday. Live it to the fullest while you can. From knoxxi with love. 
97,"Good morning... why worry about whether today is Monday or Friday, all days are everydays. That is why today is special, shake off the groan and be glad you got to see a new morning! Have fun. From knoxxi with love. "
98,Good morning... making each second count is the beauty of appreciation. A morning to see is joyous to breathe. From knoxxi with love. 
99,"Good morning... burst out with laughter, smile at a stranger, waddle with hope and enjoy life as it flows. The beauty of the morning is yours to keep. With love from Knoxxi. "
100,"Good morning... before the sun makes it to its peak, beat it with accomplishments. Enjoy the little things before the afternoon takes it away. From knoxxi with love cherish morning moments. "
101,Good morning... let the rains wash the nights troubles away. The sun will soon pop in with a brand new glow.  From knoxxi with love. 
102,"Good morning... take a deep breath or two, and realise this day was meant just for you. Enjoy the morning, with love from Knoxxi. "
103,"Good morning... notice how endless the sky is? That should be the size of your vision. unlimited.  Dream big with great steps this morning, from knoxxi with love. "
104,"Good morning... worry not, a new day is here so rise up with massive cheer! With love from Knoxxi, wishing you a beautiful day. "
105,"Good morning... dance to the tune of chirping  birds, real, authentic and true. Remain hopeful for a glorious day. From knoxxi with all the love."
106,"Good morning... if wishes existed what might yours be? Don't just imagine it, be it. Start with a morning of peace, calm and joy. These are more than just wishes, they are reality. From knoxxi with love. "
107,"Good morning... sing if you can, dance if you want, rejoice because it's a new day. Stay encouraged, you are doing great! From knoxxi with love. "
108,"Good morning... don't get stuck in the potholes of life. You woke up this morning, the road still stretches ahead. Smile with victory and slow down if necessary. You are only competing only with yourself! Welcome to a good race, win big. From knoxxi with love. "
109,"Good morning... as you start the day remember the little moments from yesterday. Explode with happiness, you owe it to no one except yourself. From knoxxi, sending love and hope. "
110,"Good morning... may this morning give the perfect ingredients for a sweet sweet day. A million drops of smiles, a pinch of joy, an ounce of self love and an overflow of positivity. With love from Knoxxi to you. "
111,"Good morning... ready for today? Chin up, hold your head high. A simple morning transcends into a gorgeous day. From knoxxi with love. "
112,"Good morning... today is a gift, as you unwrap it enjoy the moments, keep the pace, learn the lessons because experience teaches best. With love from Knoxxi, enjoy the gift of the present."
113,"Good morning... we live each day just once. Live in the present , reflect on the past but expect the future. That is a key to unlocking happiness. From knoxxi with love, the day awaits. "
114,Good morning... be super! The world needs heros in all forms. Your light of hope might be a saving grace. Aspire to inspire. From knoxxi with love. 
115,"Good morning... the world needs glitter, sparkle and light. Shine bright because you are more than just a diamond. You are a rare gem. With love, keep increasing your value and enjoy the day. From knoxxi with love. "
116,"Good morning... each day starts the same, the rises from the east. Be the element to spice it up, rise into your vision with a difference, leave footprint, leave legacy. The world is yours. From knoxxi with love. "
117,"Good morning... things happen for many reasons, you can either wonder and ponder or strive to dive. In the end, clarity comes when you keep on moving. With love from Knoxxi."
118,"Good morning... to succeed, you need the power of will. May this morning be a blessing overflowing with strength and grace. Cheers to incoming successes. From knoxxi with love. "
119,"Good morning...take the morning as slowly as it comes. Rushing through only makes you miss the point of beauty. Sit back, read a book, listen to the clock tick. Enjoy each second as it chimes. Slow is the sweetest way to make it. From us at knoxxi with love. "
120,"Good morning... start your morning with expectancy.  When you seek, you shall find. Don't lose yourself, find the greater you. With love from us at knoxxi. "
121,"Good morning... be a sunflower today, with bright golden petals, numerous and attractive..The world needs more beauty, that will be you. From knoxxi with love. "
122,Good morning... read over your goals and ensure your mind is ready to win! From knoxxi with love go out today and be the best.
123,"Good morning... tell yourself the things you want to hear, throughout the day you will be your very own cheerleader! Raising a cheer for you this morning, it is lots of love from Knoxxi. "
124,"Good morning... rise up with your feet solidly on the ground. That is how you find great balance for a great day. Cheers, from knoxxi with love. "
125,"Good morning... shake off the sleep, night is gone and day is here. With opportunities not worth missing, be vibrant and aspire to win over each dare. With love from Knoxxi. "
126,Good morning... keep the smallest thoughts because they have the potential to become greater success stories. With love from Knoxxi. 
127,"Good morning...the night brought dreams, the morning is here so you may fulfil them today. Be brave, confidence looks good on you. From knoxxi with love. "
128,"Good morning... if worrying paid off, the world would have had billionaires everywhere. But making dreams a reality does, that is why only few people make it big. Don't remain small and fragile. Set your dreams ablaze. From knoxxi with love. "
129,Good morning...  the sun rose to prove darkness does not last forever. Overcome all worries just as the morning takes over dawn. From knoxxi with love. 
130,"Good morning... what you think is what you get, iron out your thought and set the mood for the day. It's a new day with greater wins, so shall it be. From knoxxi with all the love."
131,"Good morning... butterflies may be beautiful and glorious but they were once caterpillars, stumbling, struggling with little attention. Keep wobbling, the butterfly in you will surely spread it's pretty wings. From knoxxi with love. "
132,Good morning... you woke up this morning because you had goals me meet not people to please.  Go out and be your best. With love from Knoxxi. 
133,"Good morning... we hope for a rainbow coloured sky. One that will shine so bright, heaven will surely answer those prayers. From knoxxi with love, a spectacular day just for you."
134,Good morning... hoping alone is never enough. Dreaming will only extend your slumber. Action will put it to practice. Where success shall be served in bits. Try again just as the sun rises again.  From knoxxi with love. 
135,Good morning... rise and believe in winning. If you had one major shot at making your dreams come true you would practice a million time to get it right. Everyday presents those million chances because you never know when the big day will come. From knoxxi with love. Be ready!
136,"Good morning... bravery starts from fear, so don't be afraid of fear. Just overcome it with little steps. Have a beautiful day as you progress. From knoxxi with love. "
137,"Good morning... wings were made to fly, jump into the sky. You will be phenomenal today, just soar. You can’t be detained so set your limitless limits.  Have a beautiful day. From knoxxi with love. "
138,"Good morning... encourage a friend today, they just might be your ticket to having an eventful day. Life is too short to miss little opportunities.  From knoxxi with all the love, gracing your morning for a super day ahead."
139,"Good morning... the clock is ticking, let's meet today's goals before sunset. We are ready, are you? From knoxxi with love,  let's go get it!"
140,"Good morning... you are a wonderful soul, doing your best with what life continues to serve. We are glad to have you, you indeed are priceless, an addition to the great things of earth. Never back down. With all the love from us at knoxxi. "
141,"Good morning... life in itself is a risk so ensure each day counts, that is the only way to live it. From knoxxi with love. "
142,"Good morning... the beauty of your existence is dependent on how much you work on your image. Be beautiful inside and out. That is how you glow, step into a bright new day."
143,"Good morning... every day may be different,sometimes a rainy morning, other times a storm starts the day. Always remember to be like the sun because even in the worst conditions it shall rise. From knoxxi with love let today be everything meaningful. "
144,"Good morning... the simple things carry the deepest of emotions. Give a smile even when your heart feels low. It does more than making you beautiful. It heals. With all the love from Knoxxi, have a smile filled day."
145,"Good morning... time to live free, inhale the fresh morning air and know that even the breeze comes with new package each day. From knoxxi with love. "
146,"Good morning... don't be sorry for an incomplete yesterday. Today is here, nice and early, start achieving your goals. By sundown you'd be as proud as a peacock. Determination changes things. With love from Knoxxi. "
147,"Good morning... make sure the morning starts well because it contributes to good health. Have a great healthy day, from us at knoxxi with love. "
148,Good morning... this time of day is precious because it holds the little secrets of unlocking a brilliant day. From knoxxi with love don't miss out.
149,"Good morning... keep in mind that your strength is unmatched, your hard work surely will be crowned. Keep persevering. From knoxxi with love. "
150,"Good morning... another morning comes with new favour, look up into the heavens and smile. You are a winner in every possible way. If the universe believes it so should you. With love from Knoxxi, believe in what you are today."
151,Good morning... embrace the golden moments of seeing nature at its best when every is nice and fresh. From knoxxi with love. 
152,"Good morning... forget yesterday, life is about present day. So lighten up and make today the best day. With love and support from us at knoxxi. "
153,"Good morning...  we wish you a lovely morning, sip something warm to get your engine started. Wishing you as many successes as the day has to offer. From knoxxi with love. "
154,"Good morning... stay in touch with your aspirations. Each day presents a new slate, get ready to write something great. From knoxxi with love. "
155,"Good morning... don't forget to play some music, get your heart jumping for joy. It's a new day, chase happiness.ùìi8ùí 8888"
156,"Good morning... as you ride into this day stop, wait, listen, look and focus on the beauty all around you. It's simple because life is meant to be that simple. Enjoy today. From knoxxi with love. "
157,"Good morning... ever worried about what the day might be like? Well, worry not because the day reveals itself as it unfolds. Smile at the first glimpse of sunlight, it will keep you smiling through and through. With all the love from Knoxxi. "
158,"Good morning... this time of day is sacred, a ritual of peace and positive affirmations need to be done. Let's develop a good habit together, the change shall soon be seen all round you. From knoxxi with love, be intentionally positive. "
159,"Good morning... ring a bell of hope and yearn, grace, favour, goodness and peace shall hear. From knoxxi with love, enjoy an overflow of greatness because you called it!"
160,"Good morning... each day is a blessing brought to you by morning. Make it count with love, patience and kindness to others. Be your best, your reward is near. From knoxxi with love. "
161,"Good morning... being you is easier than taking on another identity. May today experience the real you, even if things don't go as planned remind yourself to be the realest and best. From knoxxi with love, stand tall."
162,"Good morning... today shall come but once, a stage set for a play. Take a stance with an impressive delivery, a courtesy or bow at the end of the day. From knoxxi with love, the world is your stage! Live it."
163,"Good morning... what do you plan on doing through the day? Whatever it may be remember to give your very best, practice doesn't make perfect but consistency eradicates the imperfect. Grow greater, with love and support from the team at Knoxxi. "
164,"Good morning... when life gives an opportunity you grab it. Take the chance, decorate it with vibrant energy. From knoxxi with love. "
165,"Good morning... get your feet together, hop into the day, ready for exciting adventure. The choice is yours so make today a replica of those big dreams. With all the love from Knoxxi. "
166,"Good morning... take the morning as easy as the breeze, let little gitters glide past. See the greatness from now till the sun says goodbye. From knoxxi with love. "
167,Good morning... keep afoat the ship of joy and perseverance which sails within you. Today is yet another journey to cover. From knoxxi with love. 
168,"Good morning... a good night's rest means fully ready to take on the day. Catch a glimpse of the early rays,  a beautiful lineup of activities await. With love from Knoxxi wishing you a blessed day. "
169,"Good morning... sing a song of praise as you see this day, many eyes were shut, never to open again. Live the day and count those blessings. From knoxxi with love. "
170,"Good morning... a wish is only an imagination if not brought to reality. Do not day dream, live your dreams today. From knoxxi with all the love."
171,"Good morning... seedlings take time to sprout after being buried in the earth. Embrace the little dark moments, greater light is coming through as you sprout today. With all the love from Knoxxi. "
172,"Good morning... luck is on your side all day today. Believe in yourself through and through, great things will occure. From knoxxi with love. "
173,"Good morning... the dawn says goodbye as sunshine peers with a hello. Things change for better on a brighter day. From knoxxi with love, wishing you a spectacular day."
174,"Good morning... count your blessings as many times as you can.Soon enough you will see they outnumber those lurking worries.  With love from Knoxxi, enjoy a blessed day. "
175,"Good morning... wondered why flowers bloom so early? They respond to the awakening of earth. You should too, open up and shine bright with joy. With love from Knoxxi. "
176,"Good morning... each second makes you older. Each day teaches you better, may you learn greater lessons for the sake of a greater tomorrow. With love from Knoxxi. "
177,"Good morning... remind yourself of how far you've come irrespective of the distance of this mysterious journey. Congratulations, you are indeed making wonderful progress. Cheers from knoxxi. "
178,"Good morning... a look in the mirror, a hint of a smile, a pint of positive energy cam guarantee a successful day. From us at knoxxi wishing you the very best today. "
179,Good morning... you are a winner. Step out into the world claiming many more wins destined to be yours. 
180,Good morning... a little reminder from us to you. Happiness is free! Grab yours in the little things today. With all the love from Knoxxi. 
181,"Good morning... claim the day, make it yours as it comes. There  is beauty in ownership. Have a lovely day, from knoxxi with love. "
182,"Good morning... as raindrops glitter to the touch of the sun, let your soul shine in response to a brand new day. Newer opportunities are yours to take. With all the love from Knoxxi. "
183,"Good morning... have a mind map for the day, a careful guide towards achieving your deepest purpose. The day will have better direction with many gorgeous wins. With love from us at knoxxi. "
184,"Good morning... if yesterday was a good day, expect today to be more than great. Your better days just may have commenced. Be hopeful. With love and support from the team at Knoxxi. "
185,"Good morning... life teaches lessons which may be harsh. But never lose hope, keep your fighting spirit by waking up each morning. From knoxxi with love.  "
186,"Good morning... congratulations! You chose to wake up rather than snooze, a step in the direction of a champion. Reach higher! From knoxxi with love. "
187,Good morning... success is never served on a plate. Your little efforts become the ingredients for a wonderful finish. Have a great day full of great choices. With love from Knoxxi. 
188,"Good morning... take a minute to reflect. Yesterday is gone, today is here with a new slate. Write a befitting tale about yourself because you matter, just as your dreams. With love from us at knoxxi. "
189,"Good morning... each day comes with a new treasure chest. Find it, unlock the greatness and see yoursekf soar above all odds. With love from Knoxxi. "
190,Good morning... growth is never sudden. Nature surrounds you with vivid examples. Butterflies were once caterpillars. Enjoy the process of your development each day till you blossom. Lots of love from Knoxxi. 
191,"Good morning... as you start the day remember to make today count. Soon the sun will set, the moon will creep in. Leaving behind memories. From knoxxi with love. "
192,"Good morning... spring out of bed, slip on the cloak of a warrior, buckle up because each day is a battle worth winning. From knoxxi with love, cheering you on."
193,"Good morning... being good and kind makes life easier. Have fun, shake off your worries. Today comes but once. Live it till sunset."
194,"Good morning... life is in seasons, each day has a new weather. Through the storms or clear skies you need to be intentional. Don't just survive, strive through it all. With love from Knoxxi. "
195,"Good morning... don't let the day end without you laughing. Laughter does magic. From knoxxi with love, be expectant. "
196,Good morning... today is a new light. Go out expecting great accomplishments. Positive thoughts fuel massive victories. From knoxxi with love. 
197,"Good morning... your purpose is built on being an inspiration to others. Live with that in mind. Live to inspire, from knoxxi with love. "
198,"Good morning... give others a reason to keep living. Your existence is beyond just an image, there are nany looking up to you each day. Learn to inspire. From knoxxi with love. "
199,"Good morning... may today be different. Easier, greater and more beautiful. You are in control. From us at knoxxi wishing you a beautiful day. "
200,"Good morning... why dream when the day gives an opportunity of a reality. Magnify your dreams and put in the action. From knoxxi with love, today was meant to be won."